<?xml version="1.0" standalone="no"?>
<!DOCTYPE svg PUBLIC "-//W3C//DTD SVG 1.1//EN" "http://www.w3.org/Graphics/SVG/1.1/DTD/svg11.dtd" >
<!--
2020-9-20: Created with FontForge (http://fontforge.org)
-->
<svg xmlns="http://www.w3.org/2000/svg" xmlns:xlink="http://www.w3.org/1999/xlink" version="1.1">
<metadata>
Created by FontForge 20170731 at Sun Sep 20 04:38:28 2020
 By root

</metadata>
<defs>
<font id="Flaticon" horiz-adv-x="512" >
  <font-face 
    font-family="Flaticon"
    font-weight="400"
    font-stretch="normal"
    units-per-em="512"
    panose-1="2 0 5 3 0 0 0 0 0 0"
    ascent="448"
    descent="-64"
    bbox="0 -64 512.35 448"
    underline-thickness="25.6"
    underline-position="-51.2"
    unicode-range="U+0020-F102"
  />
    <missing-glyph />
    <glyph glyph-name="space" unicode=" " horiz-adv-x="200" 
 />
    <glyph glyph-name="001-instagram" unicode="&#xf100;" 
d="M511.049 297.471c1.19922 -27.3066 1.30078 -36.0068 1.30078 -105.521s-0.300781 -78.2148 -1.5 -105.521c-1.19922 -27.2051 -5.60254 -45.8096 -11.9004 -62.1143c-13.3037 -34.4053 -40.5078 -61.6094 -74.917 -74.9131
c-16.2021 -6.30176 -34.9053 -10.7012 -62.1104 -11.9004c-27.3057 -1.20312 -36.0068 -1.5 -105.521 -1.5s-78.2178 0.296875 -105.521 1.5c-27.208 1.19922 -45.8096 5.59863 -62.1133 11.9004c-17.0039 6.40039 -32.5068 16.5039 -45.3096 29.5059
c-13.0029 12.8037 -23.1025 28.2051 -29.6035 45.4072c-6.30176 16.207 -10.7051 34.9092 -11.9053 62.1143c-1.19922 27.3057 -1.5 36.0068 -1.5 105.521s0.300781 78.2139 1.60156 105.622c1.2002 27.2041 5.59961 45.8057 11.9014 62.1094
c6.40332 17.0039 16.5029 32.5068 29.5059 45.3096c12.8027 13.1045 28.2041 23.1064 45.4111 29.6074c16.2021 6.29883 34.9053 10.7012 62.1094 11.9014c27.3066 1.19922 36.0068 1.5 105.521 1.5s78.2148 -0.300781 105.622 -1.60156
c27.2051 -1.2002 45.8105 -5.59863 62.1104 -11.9014c17.0029 -6.39941 32.5059 -16.5029 45.3096 -29.5059c13.1045 -12.8027 23.1064 -28.2041 29.6074 -45.4072c6.30176 -16.2061 10.7012 -34.9092 11.9004 -62.1133zM464.942 88.4297
c1.19922 27.0049 1.5 35.0068 1.5 103.321c0 68.3135 -0.300781 76.4131 -1.5 103.418c-1.10156 24.9072 -5.30176 38.5078 -8.80273 47.5098c-4.10254 11.1035 -10.6035 21.1055 -19.1055 29.4082c-8.2002 8.50195 -18.3037 15.0029 -29.4033 19.1016
c-9.00195 3.5 -22.5049 7.7002 -47.5098 8.80176c-26.9072 1.2002 -35.0068 1.50098 -103.423 1.50098c-68.3096 0 -76.4131 -0.300781 -103.418 -1.50098c-24.9033 -1.10156 -38.5078 -5.30176 -47.5098 -8.80176c-11.1035 -4.09863 -21.1055 -10.5996 -29.4043 -19.1016
c-8.60254 -8.20508 -15.1045 -18.3047 -19.207 -29.4082c-3.5 -9.00195 -7.7002 -22.5049 -8.79785 -47.5098c-1.2041 -26.9033 -1.50098 -35.1045 -1.50098 -103.418c0 -68.3145 0.296875 -76.418 1.50098 -103.423c1.09766 -24.9033 5.29785 -38.5078 8.79785 -47.5088
c4.10254 -11.1006 10.6045 -21.1025 19.1055 -29.4043c8.20117 -8.50195 18.3047 -15.0029 29.4043 -19.1055c9.00195 -3.50098 22.5049 -7.70117 47.5098 -8.79883c26.9072 -1.20312 35.1084 -1.5 103.422 -1.5c68.3145 0 76.4141 0.296875 103.419 1.5
c24.9072 1.09766 38.5078 5.29785 47.5098 8.79883c22.3047 8.60352 40.0078 26.3057 48.6104 48.6113c3.50098 9.00098 7.70117 22.5039 8.80273 47.5088zM464.942 88.4297zM256.499 323.476c72.6162 0 131.526 -58.9102 131.526 -131.525
c0 -72.6162 -58.9102 -131.526 -131.526 -131.526c-72.6113 0 -131.525 58.9102 -131.525 131.526c0 72.6152 58.9141 131.525 131.525 131.525zM256.499 106.633c47.1113 0 85.3174 38.2061 85.3174 85.3174c0 47.1104 -38.2061 85.3174 -85.3174 85.3174
c-47.1064 0 -85.3174 -38.207 -85.3174 -85.3174c0 -47.1113 38.2109 -85.3174 85.3174 -85.3174zM256.499 106.633zM423.935 328.676c0 -16.9561 -13.749 -30.7051 -30.709 -30.7051c-16.957 0 -30.7051 13.749 -30.7051 30.7051c0 16.9609 13.748 30.7051 30.7051 30.7051
c16.96 0 30.709 -13.7441 30.709 -30.7051zM423.935 328.676z" />
    <glyph glyph-name="003-linkedin" unicode="&#xf102;" 
d="M256 448c141.363 0 256 -114.637 256 -256s-114.637 -256 -256 -256s-256 114.637 -256 256s114.637 256 256 256zM181.609 61v187.574h-62.3477v-187.574h62.3477zM150.438 274.188c21.7422 0 35.2734 14.4023 35.2734 32.4023
c-0.40625 18.4062 -13.5312 32.4102 -34.8594 32.4102s-35.2734 -14.0039 -35.2734 -32.4102c0 -18 13.5312 -32.4023 34.4531 -32.4023h0.40625zM406.422 61v107.555c0 57.6133 -30.7578 84.4219 -71.7773 84.4219c-33.0781 0 -47.9023 -18.1797 -56.1875 -30.9609v26.5586
h-62.3438c0.816406 -17.5977 0 -187.574 0 -187.574h62.3438v104.75c0 5.60547 0.402344 11.207 2.05078 15.2148c4.50781 11.1992 14.7656 22.8008 31.9883 22.8008c22.5586 0 31.5859 -17.1992 31.5859 -42.418v-100.348h62.3398zM406.422 61z" />
    <glyph glyph-name="002-facebook" unicode="&#xf101;" 
d="M437 448c41.3516 0 75 -33.6484 75 -75v-362c0 -41.3516 -33.6484 -75 -75 -75h-121v181h76l15 90h-91v61h91v90h-91c-49.6289 0 -90 -40.3711 -90 -90v-61h-60v-90h60v-181h-151c-41.3516 0 -75 33.6484 -75 75v362c0 41.3516 33.6484 75 75 75h362zM437 448z" />
  </font>
</defs></svg>
